PCBNEW-LibModule-V1  8/14/2014 7:28:56 PM
# encoding utf-8
Units mm
$INDEX
PIN_HDR-2
PIN_HDR-3
PIN_HDR-4
PIN_HDR-5
PIN_HDR-6
$EndINDEX
$MODULE PIN_HDR-2
Po 0 0 0 15 53CB63D8 00000000 ~~
Li PIN_HDR-2
Sc 0
AR /53B8A57F
Op 0 0 0
T0 0 -1.27 0.5 0.5 0 0.1 N I 21 N "REF**"
T1 0 1.27 0.5 0.5 0 0.1 N I 21 N "PIN_HDR-2"
DS -2.54 1.27 -2.54 -1.27 0.2 21
DS -2.54 -1.27 2.54 -1.27 0.2 21
DS 2.54 -1.27 2.54 1.27 0.2 21
DS 2.54 1.27 -2.54 1.27 0.2 21
$PAD
Sh "1" C 1.4224 1.4224 0 0 0
Dr 0.8636 0 0
At STD N 00E0FFFF
Ne 0 ""
Po -1.27 0
$EndPAD
$PAD
Sh "2" C 1.4224 1.4224 0 0 0
Dr 0.8636 0 0
At STD N 00E0FFFF
Ne 0 ""
Po 1.27 0
$EndPAD
$EndMODULE PIN_HDR-2
$MODULE PIN_HDR-3
Po 0 0 0 15 53CAF847 00000000 ~~
Li PIN_HDR-3
Sc 0
AR /53C834F6
Op 0 0 0
T0 0 -1.27 0.5 0.5 0 0.1 N I 21 N "REF**"
T1 0 1.27 0.5 0.5 0 0.1 N I 21 N "PIN_HDR-3"
DS -3.81 1.27 -3.81 -1.27 0.2 21
DS -3.81 -1.27 3.81 -1.27 0.2 21
DS 3.81 -1.27 3.81 1.27 0.2 21
DS 3.81 1.27 -3.81 1.27 0.2 21
$PAD
Sh "1" C 1.4224 1.4224 0 0 0
Dr 0.8636 0 0
At STD N 00E0FFFF
Ne 0 ""
Po -2.54 0
$EndPAD
$PAD
Sh "2" C 1.4224 1.4224 0 0 0
Dr 0.8636 0 0
At STD N 00E0FFFF
Ne 0 ""
Po 0 0
$EndPAD
$PAD
Sh "3" C 1.4224 1.4224 0 0 0
Dr 0.8636 0 0
At STD N 00E0FFFF
Ne 0 ""
Po 2.54 0
$EndPAD
$EndMODULE PIN_HDR-3
$MODULE PIN_HDR-4
Po 0 0 0 15 53CB63D8 00000000 ~~
Li PIN_HDR-4
Sc 0
AR /53B8A57F
Op 0 0 0
T0 0 -1.27 0.5 0.5 0 0.1 N I 21 N "REF**"
T1 0 1.27 0.5 0.5 0 0.1 N I 21 N "PIN_HDR-4"
DS -5.08 1.27 -5.08 -1.27 0.2 21
DS -5.08 -1.27 5.08 -1.27 0.2 21
DS 5.08 -1.27 5.08 1.27 0.2 21
DS 5.08 1.27 -5.08 1.27 0.2 21
$PAD
Sh "1" C 1.4224 1.4224 0 0 0
Dr 0.8636 0 0
At STD N 00E0FFFF
Ne 0 ""
Po -3.81 0
$EndPAD
$PAD
Sh "2" C 1.4224 1.4224 0 0 0
Dr 0.8636 0 0
At STD N 00E0FFFF
Ne 0 ""
Po -1.27 0
$EndPAD
$PAD
Sh "3" C 1.4224 1.4224 0 0 0
Dr 0.8636 0 0
At STD N 00E0FFFF
Ne 0 ""
Po 1.27 0
$EndPAD
$PAD
Sh "4" C 1.4224 1.4224 0 0 0
Dr 0.8636 0 0
At STD N 00E0FFFF
Ne 0 ""
Po 3.81 0
$EndPAD
$EndMODULE PIN_HDR-4
$MODULE PIN_HDR-5
Po 0 0 0 15 53ED543D 00000000 ~~
Li PIN_HDR-5
Sc 0
AR /53C834F6
Op 0 0 0
T0 0 -1.27 0.5 0.5 0 0.1 N I 21 N "REF**"
T1 0 1.27 0.5 0.5 0 0.1 N I 21 N "PIN_HDR-5"
DS 6.35 1.27 6.35 -1.27 0.2 21
DS 6.35 -1.27 -6.35 -1.27 0.2 21
DS -6.35 -1.27 -6.35 1.27 0.2 21
DS -6.35 1.27 6.35 1.27 0.2 21
$PAD
Sh "1" C 1.4224 1.4224 0 0 0
Dr 0.8636 0 0
At STD N 00E0FFFF
Ne 0 ""
Po -5.08 0
$EndPAD
$PAD
Sh "2" C 1.4224 1.4224 0 0 0
Dr 0.8636 0 0
At STD N 00E0FFFF
Ne 0 ""
Po -2.54 0
$EndPAD
$PAD
Sh "3" C 1.4224 1.4224 0 0 0
Dr 0.8636 0 0
At STD N 00E0FFFF
Ne 0 ""
Po 0 0
$EndPAD
$PAD
Sh "4" C 1.4224 1.4224 0 0 0
Dr 0.8636 0 0
At STD N 00E0FFFF
Ne 0 ""
Po 2.54 0
$EndPAD
$PAD
Sh "5" C 1.4224 1.4224 0 0 0
Dr 0.8636 0 0
At STD N 00E0FFFF
Ne 0 ""
Po 5.08 0
$EndPAD
$EndMODULE PIN_HDR-5
$MODULE PIN_HDR-6
Po 0 0 0 15 53ED53BF 00000000 ~~
Li PIN_HDR-6
Sc 0
AR /53B8A57F
Op 0 0 0
T0 0 -1.27 0.5 0.5 0 0.1 N I 21 N "REF**"
T1 0 1.27 0.5 0.5 0 0.1 N I 21 N "PIN_HDR-6"
DS 7.62 -1.27 -7.62 -1.27 0.2 21
DS -7.62 -1.27 -7.62 1.27 0.2 21
DS -7.62 1.27 7.62 1.27 0.2 21
DS 7.62 1.27 7.62 -1.27 0.2 21
$PAD
Sh "2" C 1.4224 1.4224 0 0 0
Dr 0.8636 0 0
At STD N 00E0FFFF
Ne 0 ""
Po -3.81 0
$EndPAD
$PAD
Sh "3" C 1.4224 1.4224 0 0 0
Dr 0.8636 0 0
At STD N 00E0FFFF
Ne 0 ""
Po -1.27 0
$EndPAD
$PAD
Sh "4" C 1.4224 1.4224 0 0 0
Dr 0.8636 0 0
At STD N 00E0FFFF
Ne 0 ""
Po 1.27 0
$EndPAD
$PAD
Sh "5" C 1.4224 1.4224 0 0 0
Dr 0.8636 0 0
At STD N 00E0FFFF
Ne 0 ""
Po 3.81 0
$EndPAD
$PAD
Sh "6" C 1.4224 1.4224 0 0 0
Dr 0.8636 0 0
At STD N 00E0FFFF
Ne 0 ""
Po 6.35 0
$EndPAD
$PAD
Sh "1" C 1.4224 1.4224 0 0 0
Dr 0.8636 0 0
At STD N 00E0FFFF
Ne 0 ""
Po -6.35 0
$EndPAD
$EndMODULE PIN_HDR-6
$EndLIBRARY
