PCBNEW-LibModule-V1  8/14/2015 3:26:47 PM
# encoding utf-8
Units mm
$INDEX
SMD-0805
SMD-EVM3E
SMD-JMP
SMD-JMP-3
SMD-SHUNT
$EndINDEX
$MODULE SMD-0805
Po 0 0 0 15 53CAF6FD 00000000 ~~
Li SMD-0805
Sc 0
AR /53C83568
Op 0 0 0
At SMD
T0 0 0 0.5 0.5 2700 0.1 N V 21 N "REF**"
T1 0 -1.27 0.5 0.5 0 0.1 N I 21 N "SMD-0805"
DS -0.508 0.762 -1.524 0.762 0.09906 21
DS -1.524 0.762 -1.524 -0.762 0.09906 21
DS -1.524 -0.762 -0.508 -0.762 0.09906 21
DS 0.508 -0.762 1.524 -0.762 0.09906 21
DS 1.524 -0.762 1.524 0.762 0.09906 21
DS 1.524 0.762 0.508 0.762 0.09906 21
$PAD
Sh "1" R 0.889 1.397 0 0 0
Dr 0 0 0
At SMD N 00808000
Ne 0 ""
Po -0.9525 0
$EndPAD
$PAD
Sh "2" R 0.889 1.397 0 0 0
Dr 0 0 0
At SMD N 00808000
Ne 0 ""
Po 0.9525 0
$EndPAD
$SHAPE3D
Na "smd/chip_cms.wrl"
Sc 0.1 0.1 0.1
Of 0 0 0
Ro 0 0 0
$EndSHAPE3D
$EndMODULE SMD-0805
$MODULE SMD-EVM3E
Po 0 0 0 15 55CE4F01 00000000 ~~
Li SMD-EVM3E
Sc 0
AR /53B89C0A
Op 0 0 0
T0 0 0 0.75 0.75 900 0.15 N V 21 N "REF**"
T1 -2.35 0 0.75 0.75 900 0.15 N I 21 N "SMD-EVM3E"
DC 0 0 1.55 0 0.1 21
$PAD
Sh "1" R 1.2 1.2 0 0 0
Dr 0 0 0
At SMD N 00808000
Ne 0 ""
Po -1 1.6
$EndPAD
$PAD
Sh "2" R 1.6 1.5 0 0 0
Dr 0 0 0
At SMD N 00808000
Ne 0 ""
Po 0 -1.65
$EndPAD
$PAD
Sh "3" R 1.2 1.2 0 0 0
Dr 0 0 0
At SMD N 00808000
Ne 0 ""
Po 1 1.6
$EndPAD
$EndMODULE SMD-EVM3E
$MODULE SMD-JMP
Po 0 0 0 15 55CE4789 00000000 ~~
Li SMD-JMP
Sc 0
AR /53B89C0A
Op 0 0 0
T0 0 -1.4 0.75 0.75 0 0.15 N V 21 N "REF**"
T1 0 1.6 0.75 0.75 0 0.15 N I 21 N "SMD-JMP"
DS -0.925 -0.85 0.875 -0.85 0.1 21
DS 0.875 -0.85 0.875 0.85 0.1 21
DS 0.875 0.85 -0.925 0.85 0.1 21
DS -0.925 0.85 -0.925 -0.85 0.1 21
$PAD
Sh "1" R 0.5 1.2 0 0 0
Dr 0 0 0
At SMD N 00808000
Ne 0 ""
Po -0.425 0
$EndPAD
$PAD
Sh "2" R 0.5 1.2 0 0 0
Dr 0 0 0
At SMD N 00888000
Ne 0 ""
Po 0.375 0
$EndPAD
$EndMODULE SMD-JMP
$MODULE SMD-JMP-3
Po 0 0 0 15 53CB5B7C 00000000 ~~
Li SMD-JMP-3
Sc 0
AR /53B89C0A
Op 0 0 0
T0 3.81 0 0.75 0.75 900 0.15 N V 21 N "REF**"
T1 -3.81 0 0.75 0.75 900 0.15 N I 21 N "SMD-JMP-3"
DS 2.794 -0.889 2.794 0.889 0.1 21
DS 2.794 0.889 -2.794 0.889 0.1 21
DS -2.794 0.889 -2.794 -0.889 0.1 21
DS -2.794 -0.889 2.794 -0.889 0.1 21
$PAD
Sh "1" R 1.2 1.2 0 0 0
Dr 0 0 0
At SMD N 00808000
Ne 0 ""
Po -1.905 0
$EndPAD
$PAD
Sh "2" R 1.2 1.2 0 0 0
Dr 0 0 0
At SMD N 00808000
Ne 0 ""
Po 0 0
$EndPAD
$PAD
Sh "3" R 1.2 1.2 0 0 0
Dr 0 0 0
At SMD N 00808000
Ne 0 ""
Po 1.905 0
$EndPAD
$EndMODULE SMD-JMP-3
$MODULE SMD-SHUNT
Po 0 0 0 15 53B8CBFC 00000000 ~~
Li SMD-SHUNT
Sc 0
AR /53B898A0
Op 0 0 0
T0 0 0 1 1 900 0.2 N V 21 N "R1"
T1 0 3.175 1 1 0 0.2 N I 21 N "R"
DS -4.1275 2.2225 -0.635 2.2225 0.15 21
DS -0.635 -2.2225 -4.1275 -2.2225 0.15 21
DS -4.1275 -2.2225 -4.1275 2.2225 0.15 21
DS 0.635 -2.2225 4.1275 -2.2225 0.15 21
DS 4.1275 -2.2225 4.1275 2.2225 0.15 21
DS 4.1275 2.2225 0.635 2.2225 0.15 21
$PAD
Sh "1" R 3 4 0 0 0
Dr 0 0 0
At SMD N 00808000
Ne 1 "/VIN+"
Po -2.2225 0
$EndPAD
$PAD
Sh "2" R 3 4 0 0 0
Dr 0 0 0
At SMD N 00808000
Ne 2 "/VIN-"
Po 2.2225 0
$EndPAD
$SHAPE3D
Na "smd/chip_cms.wrl"
Sc 0.275 0.275 0.1
Of 0 0 0
Ro 0 0 0
$EndSHAPE3D
$EndMODULE SMD-SHUNT
$EndLIBRARY
