EESchema Schematic File Version 2
LIBS:power
LIBS:device
LIBS:transistors
LIBS:conn
LIBS:linear
LIBS:regul
LIBS:74xx
LIBS:cmos4000
LIBS:adc-dac
LIBS:memory
LIBS:xilinx
LIBS:special
LIBS:microcontrollers
LIBS:dsp
LIBS:microchip
LIBS:analog_switches
LIBS:motorola
LIBS:texas
LIBS:intel
LIBS:audio
LIBS:interface
LIBS:digital-audio
LIBS:philips
LIBS:display
LIBS:cypress
LIBS:siliconi
LIBS:opto
LIBS:atmel
LIBS:contrib
LIBS:valves
LIBS:MAX660
LIBS:LM334
LIBS:circuit-cache
EELAYER 27 0
EELAYER END
$Descr A4 11693 8268
encoding utf-8
Sheet 1 1
Title ""
Date "14 aug 2015"
Rev ""
Comp ""
Comment1 ""
Comment2 ""
Comment3 ""
Comment4 ""
$EndDescr
$Comp
L GND #PWR01
U 1 1 53B898E8
P 4700 4050
F 0 "#PWR01" H 4700 4050 30  0001 C CNN
F 1 "GND" H 4700 3980 30  0001 C CNN
F 2 "" H 4700 4050 60  0000 C CNN
F 3 "" H 4700 4050 60  0000 C CNN
	1    4700 4050
	1    0    0    -1  
$EndComp
$Comp
L VCC #PWR02
U 1 1 53B89F75
P 4500 3800
F 0 "#PWR02" H 4500 3900 30  0001 C CNN
F 1 "VCC" H 4500 3900 30  0000 C CNN
F 2 "" H 4500 3800 60  0000 C CNN
F 3 "" H 4500 3800 60  0000 C CNN
	1    4500 3800
	0    1    1    0   
$EndComp
$Comp
L CONN_3 P1
U 1 1 53B8A40A
P 4150 3800
F 0 "P1" V 4100 3800 50  0000 C CNN
F 1 "LCD_CONN" V 4200 3800 40  0000 C CNN
F 2 "" H 4150 3800 60  0000 C CNN
F 3 "" H 4150 3800 60  0000 C CNN
	1    4150 3800
	-1   0    0    1   
$EndComp
$Comp
L LM334M U1
U 1 1 55CE30AE
P 5400 3350
F 0 "U1" H 5400 3650 60  0000 C CNN
F 1 "LM334M" H 5400 3050 60  0000 C CNN
F 2 "~" H 5400 3350 60  0000 C CNN
F 3 "~" H 5400 3350 60  0000 C CNN
	1    5400 3350
	1    0    0    -1  
$EndComp
$Comp
L MAX660 U2
U 1 1 55CE3161
P 5400 4550
F 0 "U2" H 5400 4850 60  0000 C CNN
F 1 "MAX660" H 5400 4250 60  0000 C CNN
F 2 "~" H 5400 4550 60  0000 C CNN
F 3 "~" H 5400 4550 60  0000 C CNN
	1    5400 4550
	1    0    0    -1  
$EndComp
$Comp
L GND #PWR04
U 1 1 55CE318E
P 5950 4600
F 0 "#PWR04" H 5950 4600 30  0001 C CNN
F 1 "GND" H 5950 4530 30  0001 C CNN
F 2 "" H 5950 4600 60  0000 C CNN
F 3 "" H 5950 4600 60  0000 C CNN
	1    5950 4600
	0    -1   -1   0   
$EndComp
$Comp
L VCC #PWR05
U 1 1 55CE3194
P 5950 4400
F 0 "#PWR05" H 5950 4500 30  0001 C CNN
F 1 "VCC" H 5950 4500 30  0000 C CNN
F 2 "" H 5950 4400 60  0000 C CNN
F 3 "" H 5950 4400 60  0000 C CNN
	1    5950 4400
	0    1    1    0   
$EndComp
$Comp
L GND #PWR06
U 1 1 55CE319A
P 4850 4600
F 0 "#PWR06" H 4850 4600 30  0001 C CNN
F 1 "GND" H 4850 4530 30  0001 C CNN
F 2 "" H 4850 4600 60  0000 C CNN
F 3 "" H 4850 4600 60  0000 C CNN
	1    4850 4600
	0    1    1    0   
$EndComp
$Comp
L CP1 C1
U 1 1 55CE322D
P 4400 4500
F 0 "C1" H 4450 4600 50  0000 L CNN
F 1 "10uF" H 4450 4400 50  0000 L CNN
F 2 "~" H 4400 4500 60  0000 C CNN
F 3 "~" H 4400 4500 60  0000 C CNN
	1    4400 4500
	1    0    0    -1  
$EndComp
$Comp
L CP1 C2
U 1 1 55CE323A
P 6300 4500
F 0 "C2" H 6350 4600 50  0000 L CNN
F 1 "10uF" H 6350 4400 50  0000 L CNN
F 2 "~" H 6300 4500 60  0000 C CNN
F 3 "~" H 6300 4500 60  0000 C CNN
	1    6300 4500
	1    0    0    -1  
$EndComp
NoConn ~ 5950 4500
NoConn ~ 4850 4400
NoConn ~ 5950 3500
NoConn ~ 5950 3200
$Comp
L POT VR1
U 1 1 55CE37A8
P 4600 3200
F 0 "VR1" H 4600 3100 50  0000 C CNN
F 1 "POT" H 4600 3200 50  0000 C CNN
F 2 "~" H 4600 3200 60  0000 C CNN
F 3 "~" H 4600 3200 60  0000 C CNN
	1    4600 3200
	0    1    1    0   
$EndComp
$Comp
L JUMPER J1
U 1 1 55CE4586
P 5850 3900
F 0 "J1" H 5850 4050 60  0000 C CNN
F 1 "JUMPER" H 5850 3820 40  0000 C CNN
F 2 "~" H 5850 3900 60  0000 C CNN
F 3 "~" H 5850 3900 60  0000 C CNN
	1    5850 3900
	1    0    0    -1  
$EndComp
$Comp
L JUMPER J2
U 1 1 55CE4593
P 6450 3900
F 0 "J2" H 6450 4050 60  0000 C CNN
F 1 "JUMPER" H 6450 3820 40  0000 C CNN
F 2 "~" H 6450 3900 60  0000 C CNN
F 3 "~" H 6450 3900 60  0000 C CNN
	1    6450 3900
	1    0    0    -1  
$EndComp
Wire Wire Line
	4850 3300 4850 3400
Wire Wire Line
	5950 3300 5950 3400
Wire Wire Line
	5950 3300 6150 3300
Wire Wire Line
	6150 2850 6150 3900
Connection ~ 4600 3450
Wire Wire Line
	4850 3500 4850 3700
Connection ~ 6150 3300
Wire Wire Line
	4750 3450 4750 3400
Wire Wire Line
	4850 4500 4700 4500
Wire Wire Line
	4700 4500 4700 4300
Wire Wire Line
	4850 3200 4750 3200
Wire Wire Line
	4750 3400 4850 3400
Wire Wire Line
	4400 3450 4750 3450
Wire Wire Line
	6150 2850 4400 2850
Wire Wire Line
	4400 2850 4400 3450
NoConn ~ 4600 2950
Text Label 6750 4700 0    60   ~ 0
-VCC
Text Label 4700 3700 2    60   ~ 0
VO
Text Label 4750 3200 0    60   ~ 0
RSET
Text Label 4700 4300 0    60   ~ 0
C+
Text Label 4700 4700 0    60   ~ 0
C-
Text Label 6150 3300 0    60   ~ 0
V-
Wire Wire Line
	4500 3900 5550 3900
Connection ~ 4700 3900
Wire Wire Line
	4850 3700 4500 3700
Connection ~ 4700 4300
Connection ~ 4700 4700
Connection ~ 4750 3200
Connection ~ 6150 3900
Connection ~ 6300 4700
$Comp
L GND #PWR?
U 1 1 55CE712A
P 6300 4250
F 0 "#PWR?" H 6300 4250 30  0001 C CNN
F 1 "GND" H 6300 4180 30  0001 C CNN
F 2 "" H 6300 4250 60  0000 C CNN
F 3 "" H 6300 4250 60  0000 C CNN
	1    6300 4250
	-1   0    0    1   
$EndComp
Wire Wire Line
	6300 4300 6300 4250
Wire Wire Line
	5950 4700 6750 4700
Wire Wire Line
	6750 4700 6750 3900
Connection ~ 6750 4700
Connection ~ 4700 3700
Wire Wire Line
	4700 3900 4700 4050
Text Label 4700 3900 0    60   ~ 0
GND
Wire Wire Line
	4850 4700 4400 4700
Wire Wire Line
	4700 4300 4400 4300
$EndSCHEMATC
